<?xml version="1.0" encoding="UTF-8" standalone="no"?>
<svg
   xmlns:dc="http://purl.org/dc/elements/1.1/"
   xmlns:cc="http://creativecommons.org/ns#"
   xmlns:rdf="http://www.w3.org/1999/02/22-rdf-syntax-ns#"
   xmlns:svg="http://www.w3.org/2000/svg"
   xmlns="http://www.w3.org/2000/svg"
   xmlns:sodipodi="http://sodipodi.sourceforge.net/DTD/sodipodi-0.dtd"
   xmlns:inkscape="http://www.inkscape.org/namespaces/inkscape"
   inkscape:version="1.0beta2 (2b71d25, 2019-12-03)"
   sodipodi:docname="control_panel.svg"
   id="svg845"
   viewBox="0 0 32 32"
   height="32"
   width="32"
   version="1.1">
  <metadata
     id="metadata851">
    <rdf:RDF>
      <cc:Work
         rdf:about="">
        <dc:format>image/svg+xml</dc:format>
        <dc:type
           rdf:resource="http://purl.org/dc/dcmitype/StillImage" />
      </cc:Work>
    </rdf:RDF>
  </metadata>
  <defs
     id="defs849" />
  <sodipodi:namedview
     inkscape:current-layer="svg845"
     inkscape:window-maximized="0"
     inkscape:window-y="51"
     inkscape:window-x="541"
     inkscape:cy="18.133692"
     inkscape:cx="-1.6640701"
     inkscape:zoom="6.5390625"
     showgrid="false"
     id="namedview847"
     inkscape:window-height="711"
     inkscape:window-width="1346"
     inkscape:pageshadow="2"
     inkscape:pageopacity="0"
     guidetolerance="10"
     gridtolerance="10"
     objecttolerance="10"
     borderopacity="1"
     inkscape:document-rotation="0"
     bordercolor="#666666"
     pagecolor="#ffffff" />
  <title
     id="title833">control_panel</title>
  <path
     style="stroke:#bebebe;stroke-opacity:1"
     id="path835"
     d="M9.001 7.459h22.999"
     stroke-linejoin="miter"
     stroke-linecap="butt"
     stroke-miterlimit="10"
     stroke-width="1.3813"
     stroke="#000"
     fill="none" />
  <path
     style="stroke:#bebebe;stroke-opacity:1"
     id="path837"
     d="M0 24.541h12.063"
     stroke-linejoin="miter"
     stroke-linecap="butt"
     stroke-miterlimit="10"
     stroke-width="1.3813"
     stroke="#000"
     fill="none" />
  <path
     style="stroke:#bebebe;stroke-opacity:1"
     id="path839"
     d="M20.512 24.541h11.488"
     stroke-linejoin="miter"
     stroke-linecap="butt"
     stroke-miterlimit="10"
     stroke-width="1.3813"
     stroke="#000"
     fill="none" />
  <path
     style="stroke:#bebebe;stroke-opacity:1"
     id="path841"
     d="M9.001 7.459c0 2.301-1.866 4.167-4.167 4.167s-4.167-1.866-4.167-4.167c0-2.301 1.866-4.167 4.167-4.167s4.167 1.866 4.167 4.167z"
     stroke-linejoin="miter"
     stroke-linecap="butt"
     stroke-miterlimit="10"
     stroke-width="1.3813"
     stroke="#000"
     fill="none" />
  <path
     style="stroke:#bebebe;stroke-opacity:1"
     id="path843"
     d="M20.397 24.541c0 2.301-1.866 4.167-4.167 4.167s-4.167-1.866-4.167-4.167c0-2.301 1.866-4.167 4.167-4.167s4.167 1.866 4.167 4.167z"
     stroke-linejoin="miter"
     stroke-linecap="butt"
     stroke-miterlimit="10"
     stroke-width="1.3813"
     stroke="#000"
     fill="none" />
</svg>
