<!-- Generated by IcoMoon.io -->
<svg version="1.1" xmlns="http://www.w3.org/2000/svg" width="32" height="32" viewBox="0 0 32 32">
<title>control_panel</title>
<path fill="none" stroke="#000" stroke-width="1.3813" stroke-miterlimit="10" stroke-linecap="butt" stroke-linejoin="miter" d="M9.001 7.459h22.999"></path>
<path fill="none" stroke="#000" stroke-width="1.3813" stroke-miterlimit="10" stroke-linecap="butt" stroke-linejoin="miter" d="M0 24.541h12.063"></path>
<path fill="none" stroke="#000" stroke-width="1.3813" stroke-miterlimit="10" stroke-linecap="butt" stroke-linejoin="miter" d="M20.512 24.541h11.488"></path>
<path fill="none" stroke="#000" stroke-width="1.3813" stroke-miterlimit="10" stroke-linecap="butt" stroke-linejoin="miter" d="M9.001 7.459c0 2.301-1.866 4.167-4.167 4.167s-4.167-1.866-4.167-4.167c0-2.301 1.866-4.167 4.167-4.167s4.167 1.866 4.167 4.167z"></path>
<path fill="none" stroke="#000" stroke-width="1.3813" stroke-miterlimit="10" stroke-linecap="butt" stroke-linejoin="miter" d="M20.397 24.541c0 2.301-1.866 4.167-4.167 4.167s-4.167-1.866-4.167-4.167c0-2.301 1.866-4.167 4.167-4.167s4.167 1.866 4.167 4.167z"></path>
</svg>
